{
  "fields": [
    {
      "name": "numero",
      "type": "integer"
    },
    {
      "name": "nombre",
      "type": "string"
    },
    {
      "name": "direccion",
      "type": "string"
    },
    {
      "name": "telefono1",
      "type": "text"
    },
    {
      "name": "telefono2",
      "type": "text"
    },
    {
      "name": "email",
      "type": "email"
    },
    {
      "name": "user_id",
      "type": "integer#unsigned"
    },
    {
      "name": "logo",
      "type": "string"
    },
    {
      "name": "habilitado",
      "type": "boolean"
    },
    {
      "name": "nombre_director",
      "type": "string"
    },
    {
      "name": "telefono_director",
      "type": "text"
    },
    {
      "name": "email_director",
      "type": "email"
    },
    {
      "name": "direccion_director",
      "type": "string"
    }
  ],
  "foreign_keys": [
    {
      "column": "user_id",
      "references": "id",
      "on": "users",
      "onDelete": "cascade"
    }
  ],
  "relationships": [
    {
      "name": "user",
      "type": "belongsTo",
      "class": "App\\User"
    }
  ],
  "validations": [
    {
      "field": "nombre",
      "rules": "required"
    }
  ]
}