{
  "fields": [
    {
      "name": "nombre",
      "type": "string"
    },
    {
      "name": "apellido",
      "type": "string"
    },
    {
      "name": "email",
      "type": "email"
    },
    {
      "name": "genero",
      "type": "boolean"
    },
    {
      "name": "fecha_nacimiento",
      "type": "date"
    },
    {
      "name": "telefono",
      "type": "text"
    },
    {
      "name": "direccion",
      "type": "string"
    },
    {
      "name": "user_id",
      "type": "integer#unsigned"
    },
    {
      "name": "institucion_id",
      "type": "integer#unsigned"
    }
  ],
  "foreign_keys": [
    {
      "column": "user_id",
      "references": "id",
      "on": "users",
      "onDelete": "cascade"
    },
    {
      "column": "institucion_id",
      "references": "id",
      "on": "instituciones",
      "onDelete": "cascade"
    }
  ],
  "relationships": [
    {
      "name": "user",
      "type": "belongsTo",
      "class": "App\\User"
    },
    {
      "name": "institucion",
      "type": "belongsTo",
      "class": "App\\Institucion"
    }
  ],
  "validations": [
    {
      "field": "nombre",
      "rules": "required"
    },
    {
      "field": "apellido",
      "rules": "required"
    },
    {
      "field": "email",
      "rules": "required|email|unique:users,email"
    },
    {
      "field": "genero",
      "rules": "required"
    },
    {
      "field": "fecha_nacimiento",
      "rules": "required"
    },
    {
      "field": "telefono",
      "rules": "required"
    },
    {
      "field": "direccion",
      "rules": "required"
    }
  ]
}